…
**Resources**:
<https://stackoverflow.com/questions/19116442/how-to-convert-factor-to-numeric-in-r-without-nas-introduced-by-coercion-warning>

## Iterating

``` r
jump <- seq(2000, 2020, by = 2)
site <- paste("https://www.opensecrets.org/political-action-committees-pacs/industry-breakdown/", jump, sep = "")
iterated <- lapply(site, scrape_pac)
final <- do.call(rbind, iterated)
final
```

    ## # A tibble: 1,542 x 5
    ##    Years     Name                        Total Total_to_Democr~ Total_to_Republ~
    ##    <chr>     <chr>                       <dbl>            <dbl>            <dbl>
    ##  1 1999-2000 Agribusiness               1.62e7          4987207         11132691
    ##  2 1999-2000 Crop Production & Basic P~ 3.26e6          1558472          1702118
    ##  3 1999-2000 Tobacco                    2.40e6           628638          1752151
    ##  4 1999-2000 Dairy                      1.34e6           544915           790270
    ##  5 1999-2000 Poultry & Eggs             4.62e5           168335           291701
    ##  6 1999-2000 Livestock                  7.67e5           189728           576195
    ##  7 1999-2000 Agricultural Services/Pro~ 3.06e6          1099991          1960909
    ##  8 1999-2000 Food Processing & Sales    2.72e6           434278          2279989
    ##  9 1999-2000 Forestry & Forest Products 2.14e6           356408          1775137
    ## 10 1999-2000 Sugar cane & sugar beets   1.59e6           873458           717828
    ## # ... with 1,532 more rows
…
  summarise(
    Democrat = mean(Total_to_Democrats),
    Republican = mean(Total_to_Republicans)
  ) %>%
  pivot_longer(c(Democrat, Republican), names_to = "Party", values_to = "Average")
vs_graph <- vs_table %>%
  ggplot(mapping = aes(Years, Average, fill = Party)) +
  geom_col(position = "dodge") +
  labs(x = "Years/Cycles", y = "Average Total Recieved (in USD)", title = "Average Total Contributions From PACs by Political Party") +
  scale_fill_manual(values = c("#0080FF", "#FF3333")) +
  scale_x_discrete(guide = guide_axis(n.dodge = 2))
vs_table
```

    ## # A tibble: 22 x 3
    ##    Years     Party       Average
    ##    <chr>     <chr>         <dbl>
    ##  1 1999-2000 Democrat   1960785.
    ##  2 1999-2000 Republican 2200238.
    ##  3 2001-2002 Democrat   2192553 
    ##  4 2001-2002 Republican 2351369.
    ##  5 2003-2004 Democrat   2167519.
    ##  6 2003-2004 Republican 2885946.
    ##  7 2005-2006 Democrat   2587326.
    ##  8 2005-2006 Republican 3420170.
    ##  9 2007-2008 Democrat   3716599.
    ## 10 2007-2008 Republican 2860894.
    ## # ... with 12 more rows
…
